  5
-1.0000000000000000e+000    6.6666666666666666e-002
-7.0710678118654757e-001    5.3333333333333333e-001
-6.1232339957367660e-017    8.0000000000000004e-001
7.0710678118654746e-001    5.3333333333333344e-001
1.0000000000000000e+000    6.6666666666666666e-002

